Summaries of the poll data for a given election. — summary_survey_data • pollspain
…
# Summary for all 2019-2023 surveys
summary_survey_data(year = c(2019, 2023))
#> Summary survey data
#>    [x] Checking if parameters are allowed...
#> Import survey data
#>    [x] Checking if parameters are allowed...
#>    [x] Importing survey data ...
#>    [x] Computing some statistics...
#> Warning: There was 1 warning in `mutate()`.
#> ℹ In argument: `days_until_elec = ifelse(...)`.
#> Caused by warning:
#> !  3222 failed to parse.
#>    [x] Filtering surveys...
#> ! A short version was asked (if you want all variables, run with `short_version = FALSE`)
#> # A tibble: 16,521 × 9
#>    id_survey       id_elec polling_firm n_field_days sample_size fieldwork_start
#>    <chr>           <glue>  <chr>               <dbl>       <dbl> <date>         
#>  1 ElectoPanel-20… 02-202… ElectoPanel             4        1250 2019-12-25     
#>  2 ElectoPanel-20… 02-202… ElectoPanel             4        1250 2019-12-25     
#>  3 ElectoPanel-20… 02-202… ElectoPanel             4        1250 2019-12-25     
#>  4 ElectoPanel-20… 02-202… ElectoPanel             4        1250 2019-12-25     
#>  5 ElectoPanel-20… 02-202… ElectoPanel             4        1250 2019-12-25     
#>  6 ElectoPanel-20… 02-202… ElectoPanel             4        1250 2019-12-25     
#>  7 ElectoPanel-20… 02-202… ElectoPanel             4        1250 2019-12-25     
#>  8 ElectoPanel-20… 02-202… ElectoPanel             4        1250 2019-12-25     
#>  9 ElectoPanel-20… 02-202… ElectoPanel             4        1250 2019-12-25     
#> 10 ElectoPanel-20… 02-202… ElectoPanel             4        1250 2019-12-25     
#> # ℹ 16,511 more rows
#> # ℹ 3 more variables: fieldwork_end <date>, abbrev_candidacies <chr>,
#> #   estimated_porc_ballots <dbl>
…
                    filter_polling_firm = c("GAD3", "40DB"),
                    filter_days_until_elec = 30,
                    lower_sample_size =  500)
#> Summary survey data
#>    [x] Checking if parameters are allowed...
#> Import survey data
#>    [x] Checking if parameters are allowed...
#>    [x] Importing survey data ...
#>    [x] Computing some statistics...
#> Warning: There was 1 warning in `mutate()`.
#> ℹ In argument: `days_until_elec = ifelse(...)`.
#> Caused by warning:
#> !  3222 failed to parse.
#>    [x] Filtering surveys...
#> # A tibble: 430 × 14
#>    id_survey          id_elec polling_firm media n_polls_by_elec fieldwork_start
#>    <chr>              <glue>  <chr>        <chr>           <int> <date>         
#>  1 GAD3-2023-07-10-2… 02-202… GAD3         Medi…              47 2023-07-10     
#>  2 GAD3-2023-07-10-2… 02-202… GAD3         Medi…              47 2023-07-10     
#>  3 GAD3-2023-07-10-2… 02-202… GAD3         Medi…              47 2023-07-10     
#>  4 GAD3-2023-07-10-2… 02-202… GAD3         Medi…              47 2023-07-10     
#>  5 GAD3-2023-07-10-2… 02-202… GAD3         Medi…              47 2023-07-10     
#>  6 GAD3-2023-07-10-2… 02-202… GAD3         Medi…              47 2023-07-10     
#>  7 GAD3-2023-07-10-2… 02-202… GAD3         Medi…              47 2023-07-10     
#>  8 GAD3-2023-07-10-2… 02-202… GAD3         Medi…              47 2023-07-10     
#>  9 GAD3-2023-07-10-2… 02-202… GAD3         Medi…              47 2023-07-10     
#> 10 GAD3-2023-07-10-2… 02-202… GAD3         Medi…              47 2023-07-10     
#> # ℹ 420 more rows
#> # ℹ 8 more variables: fieldwork_end <date>, n_field_days <dbl>,
#> #   days_until_elec <dbl>, sample_size <dbl>, abbrev_candidacies <chr>,
#> #   id_candidacies_nat <chr>, name_candidacies_nat <chr>,
#> #   estimated_porc_ballots <dbl>
…
# by parties ("PP" and "PSOE") and with a sample size at least
# than 500 people
summary_survey_data(forthcoming = TRUE,
                    filter_abbrev_candidacies = c("PP", "PSOE"),
                    lower_sample_size =  500)
#> Summary survey data
#>    [x] Checking if parameters are allowed...
#> Import survey data
#>    [x] Checking if parameters are allowed...
#> Be careful! No date neither year was provided: just surveys for the forthcoming elections were provided
#>    [x] Importing survey data ...
#>    [x] Computing some statistics...
#>    [x] Filtering surveys...
#> ! A short version was asked (if you want all variables, run with `short_version = FALSE`)
#> # A tibble: 607 × 9
#>    id_survey       id_elec polling_firm n_field_days sample_size fieldwork_start
#>    <chr>           <glue>  <chr>               <dbl>       <dbl> <date>         
#>  1 SocioMetrica-2… 02-202… SocioMetrica            7        2309 2023-12-25     
#>  2 SocioMetrica-2… 02-202… SocioMetrica            7        2309 2023-12-25     
#>  3 ElectoPanel-20… 02-202… ElectoPanel             7        1007 2023-12-23     
#>  4 ElectoPanel-20… 02-202… ElectoPanel             7        1007 2023-12-23     
#>  5 Celeste-Tel-20… 02-202… Celeste-Tel             7        1100 2023-12-21     
#>  6 Celeste-Tel-20… 02-202… Celeste-Tel             7        1100 2023-12-21     
#>  7 Sigma Dos-2023… 02-202… Sigma Dos              12        2992 2023-12-15     
#>  8 Sigma Dos-2023… 02-202… Sigma Dos              12        2992 2023-12-15     
#>  9 ElectoPanel-20… 02-202… ElectoPanel             7        1093 2023-12-16     
#> 10 ElectoPanel-20… 02-202… ElectoPanel             7        1093 2023-12-16     
#> # ℹ 597 more rows
#> # ℹ 3 more variables: fieldwork_end <date>, abbrev_candidacies <chr>,
#> #   estimated_porc_ballots <dbl>
…
