A grammar for the analysis of electoral and poll data • pollspain
…
import functions

Functions starting with import_..._data() (whose code can be found in the import_elections_data.R file) aimed at importing and preprocessing as raw as possible the .DAT election files from the Spanish Ministry of Interior. All functions download the .rda files available in the Github repository (directly downloaded from MIR website).

Census data (level: mun)

import_mun_census_data() import municipal census data for one or more elections at the municipal level. This function downloads and processes «raw» municipal data files for specified elections, providing variables related to population, census and administrative codes.

mun_census_data <- import_mun_census_data("congress", 2019, 4)
#> 🔎 Check if parameters are allowed...
#> 📦 Import census mun data from ...
#> - https://github.com/dadosdelaplace/pollspain-data/blob/main/02-congress/02201904/raw_mun_data_congress_2019_04.rda?raw=true
mun_census_data
#> # A tibble: 8,131 × 18
#>    id_elec       cod_elec type_elec date_elec  id_INE_mun cod_INE_ccaa ccaa     
#>    <glue>        <chr>    <chr>     <date>     <glue>     <chr>        <chr>    
#>  1 02-2019-04-28 02       congress  2019-04-28 01-04-001  01           Andalucía
#>  2 02-2019-04-28 02       congress  2019-04-28 01-04-002  01           Andalucía
#>  3 02-2019-04-28 02       congress  2019-04-28 01-04-003  01           Andalucía
#>  4 02-2019-04-28 02       congress  2019-04-28 01-04-004  01           Andalucía
#>  5 02-2019-04-28 02       congress  2019-04-28 01-04-005  01           Andalucía
#>  6 02-2019-04-28 02       congress  2019-04-28 01-04-006  01           Andalucía
#>  7 02-2019-04-28 02       congress  2019-04-28 01-04-007  01           Andalucía
#>  8 02-2019-04-28 02       congress  2019-04-28 01-04-008  01           Andalucía
#>  9 02-2019-04-28 02       congress  2019-04-28 01-04-009  01           Andalucía
#> 10 02-2019-04-28 02       congress  2019-04-28 01-04-010  01           Andalucía
#> # ℹ 8,121 more rows
#> # ℹ 11 more variables: cod_INE_prov <chr>, prov <chr>, cod_INE_mun <chr>,
#> #   mun <chr>, cod_mun_jud_district <chr>, cod_mun_prov_council <chr>,
#> #   n_poll_stations <dbl>, pop_res_mun <dbl>, census_INE_mun <dbl>,
#> #   census_counting_mun <dbl>, census_CERE_mun <dbl>
…
import_poll_station_data() import and preprocess elections data at poll stations level for given election types and dates, providing variables related to turnout, blank/valid votes, etc

poll_data <- import_poll_station_data("congress", 2019, c(4, 11))
#> 🔎 Check if parameters are allowed...
#> 📦 Import poll station data from ...
#> - https://github.com/dadosdelaplace/pollspain-data/blob/main/02-congress/02201904/raw_poll_stations_congress_2019_04.rda?raw=true
#> - https://github.com/dadosdelaplace/pollspain-data/blob/main/02-congress/02201911/raw_poll_stations_congress_2019_11.rda?raw=true
#> 🔎 Check if parameters are allowed...
#> 📦 Import census mun data from ...
#> - https://github.com/dadosdelaplace/pollspain-data/blob/main/02-congress/02201904/raw_mun_data_congress_2019_04.rda?raw=true
#> - https://github.com/dadosdelaplace/pollspain-data/blob/main/02-congress/02201911/raw_mun_data_congress_2019_11.rda?raw=true
#> ⚠️ A short version was asked. If you require all variables, please run with `short_version = FALSE'
poll_data
#> # A tibble: 119,697 × 20
#>    id_elec type_elec date_elec  id_INE_poll_station id_INE_mun ccaa  prov  mun  
#>    <glue>  <chr>     <date>     <glue>              <glue>     <chr> <chr> <chr>
#>  1 02-201… congress  2019-04-28 01-04-003-01-004-B  01-04-003  Anda… Alme… Adra 
#>  2 02-201… congress  2019-04-28 01-04-003-01-007-U  01-04-003  Anda… Alme… Adra 
#>  3 02-201… congress  2019-04-28 01-04-003-02-001-A  01-04-003  Anda… Alme… Adra 
#>  4 02-201… congress  2019-04-28 01-04-006-01-002-A  01-04-006  Anda… Alme… Albox
#>  5 02-201… congress  2019-04-28 01-04-008-01-001-A  01-04-008  Anda… Alme… Alcó…
#>  6 02-201… congress  2019-04-28 01-04-010-01-001-U  01-04-010  Anda… Alme… Alha…
#>  7 02-201… congress  2019-04-28 01-04-013-02-005-A  01-04-013  Anda… Alme… Alme…
#>  8 02-201… congress  2019-04-28 01-04-013-03-011-A  01-04-013  Anda… Alme… Alme…
#>  9 02-201… congress  2019-04-28 01-04-013-06-013-A  01-04-013  Anda… Alme… Alme…
#> 10 02-201… congress  2019-04-28 01-04-013-06-016-B  01-04-013  Anda… Alme… Alme…
#> # ℹ 119,687 more rows
#> # ℹ 12 more variables: blank_ballots <dbl>, invalid_ballots <dbl>,
#> #   party_ballots <dbl>, valid_ballots <dbl>, total_ballots <dbl>,
#> #   turnout <dbl>, porc_valid <dbl>, porc_invalid <dbl>, porc_parties <dbl>,
#> #   porc_blank <dbl>, pop_res_mun <dbl>, census_counting_mun <dbl>

Candidacies data (level: poll station)

import_candidacies_data() import and preprocess candidacies data, providing variables related to id of candidacies, abbreviature and names of them and ballots obtained for each one at each poll station.

candidacies_data <- import_candidacies_data("congress", 2019, c(4, 11))
#> 🔎 Check if parameters are allowed...
#> 📦 Import candidacies data at poll station level from ...
#> - https://github.com/dadosdelaplace/pollspain-data/blob/main/02-congress/02201904/raw_candidacies_poll_congress_2019_04.rda?raw=true
#> - https://github.com/dadosdelaplace/pollspain-data/blob/main/02-congress/02201911/raw_candidacies_poll_congress_2019_11.rda?raw=true
#> ⏳ Please wait, the volume of data downloaded and the internet connection may take a few seconds
#> ⚠️ A short version was asked. If you require all variables, please run with `short_version = FALSE'
candidacies_data
#> # A tibble: 1,482,129 × 12
#>    id_elec type_elec date_elec  id_INE_poll_station id_INE_mun ccaa  prov  mun  
#>    <glue>  <chr>     <date>     <glue>              <glue>     <chr> <chr> <chr>
#>  1 02-201… congress  2019-04-28 01-04-001-01-001-B  01-04-001  Anda… Alme… Abla 
#>  2 02-201… congress  2019-04-28 01-04-001-01-001-B  01-04-001  Anda… Alme… Abla 
#>  3 02-201… congress  2019-04-28 01-04-002-01-001-A  01-04-002  Anda… Alme… Abru…
#>  4 02-201… congress  2019-04-28 01-04-002-01-001-A  01-04-002  Anda… Alme… Abru…
#>  5 02-201… congress  2019-04-28 01-04-003-01-003-A  01-04-003  Anda… Alme… Adra 
#>  6 02-201… congress  2019-04-28 01-04-003-01-003-B  01-04-003  Anda… Alme… Adra 
#>  7 02-201… congress  2019-04-28 01-04-003-01-003-B  01-04-003  Anda… Alme… Adra 
#>  8 02-201… congress  2019-04-28 01-04-003-01-006-A  01-04-003  Anda… Alme… Adra 
#>  9 02-201… congress  2019-04-28 01-04-003-01-007-U  01-04-003  Anda… Alme… Adra 
#> 10 02-201… congress  2019-04-28 01-04-003-02-002-A  01-04-003  Anda… Alme… Adra 
#> # ℹ 1,482,119 more rows
#> # ℹ 4 more variables: id_candidacies <chr>, abbrev_candidacies <chr>,
#> #   name_candidacies <chr>, ballots <dbl>
…
