About data • pollspain
…
      Source: vignettes/about-data.Rmd
      about-data.Rmd

Required packages

Let’s load the required packages for this tutorial.

library(pollspain)
library(dplyr)

Dictionary for parties and candidacies

global_dict_parties
#> # A tibble: 2,124 × 7
#>    id_elec abbrev_candidacies name_candidacies id_candidacies_nat id_candidacies
#>    <chr>   <chr>              <chr>            <chr>              <chr>         
#>  1 02-201… JF                 PARTIDO DE JUBI… 000047             000047        
#>  2 02-200… LIT-CI             LLUITA INTERNAC… 000145             000277        
#>  3 02-201… MAS                MUERTE AL SISTE… 000050             000050        
#>  4 02-201… MAS                MUERTE AL SISTE… 902601.0           000992        
#>  5 02-201… MAS                MUERTE AL SISTE… 000103             000103        
#>  6 02-202… RDS                REFERENDUM SIST… 000079             000079        
#>  7 02-202… T3EA               TERCERA EDAD EN… 000042             000042        
#>  8 02-200… A                  ASAMBLEA DE AND… 000001             000001        
#>  9 02-200… A                  ASAMBLEA DE AND… 000001             000001        
#> 10 02-200… A-IZ               ASAMBLEA DE IZQ… 000002             000002        
#> # ℹ 2,114 more rows
#> # ℹ 2 more variables: name_candidacies_nat <chr>, color <chr>
…
Datasets about elections

Pending to doc

Datasets about surveys

Pending to doc

Auxiliary datasets

Dates of Spanish elections

dates_elections_spain
#> # A tibble: 62 × 8
#>    cod_elec type_elec  date        year month   day topic                pdf_CEB
#>    <chr>    <chr>      <date>     <dbl> <dbl> <int> <chr>                <chr>  
#>  1 01       referendum 1976-12-15  1976    12    15 Ref. Proyecto Ley R… NA     
#>  2 01       referendum 1978-12-06  1978    12     6 Constitución         NA     
#>  3 01       referendum 1986-03-12  1986     3    12 OTAN                 NA     
#>  4 01       referendum 2005-02-20  2005     2    20 Constitución UE      NA     
#>  5 02       congress   1982-10-28  1982    10    28 NA                   NA     
#>  6 02       congress   1986-06-22  1986     6    22 NA                   NA     
#>  7 02       congress   1989-10-29  1989    10    29 NA                   NA     
#>  8 02       congress   1993-06-06  1993     6     6 NA                   NA     
#>  9 02       congress   1996-03-03  1996     3     3 NA                   NA     
#> 10 02       congress   2000-03-12  2000     3    12 NA                   NA     
#> # ℹ 52 more rows
…
date: date of election in "YYYY-MM-DD"
format.

year, month, day: year, month and day of election.

topic: topic (just for referendum).

Last update: 2025/05/25. The code used to generate the dataset can be
found at data-raw/dates_elections_spain.R
script.

INE’s code for ccaa and provinces

cod_INE_prov_ccaa
#> # A tibble: 52 × 5
#>    cod_INE_ccaa cod_MIR_ccaa ccaa      cod_INE_prov prov   
#>    <chr>        <chr>        <chr>     <chr>        <chr>  
#>  1 01           01           Andalucía 04           Almería
#>  2 01           01           Andalucía 11           Cádiz  
#>  3 01           01           Andalucía 14           Córdoba
#>  4 01           01           Andalucía 18           Granada
#>  5 01           01           Andalucía 21           Huelva 
#>  6 01           01           Andalucía 23           Jaén   
#>  7 01           01           Andalucía 29           Málaga 
#>  8 01           01           Andalucía 41           Sevilla
#>  9 02           02           Aragón    22           Huesca 
#> 10 02           02           Aragón    44           Teruel 
#> # ℹ 42 more rows
…
cod_INE_prov: code of province.

prov: name of province.

Data was extracted from https://www.ine.es/daco/daco42/codmun/cod_ccaa_provincia.html.

Last update: 2025/05/25 (data updated by INE on 2023/02/25). The code
used to generate the dataset can be found at data-raw/cod_INE_prov_ccaa.R
script.

INE’s code for municipalities

cod_INE_mun
#> # A tibble: 8,131 × 10
#>    id_INE_mun id_MIR_mun cod_INE_ccaa cod_MIR_ccaa cod_INE_prov cod_INE_mun
#>    <glue>     <glue>     <chr>        <chr>        <chr>        <chr>      
#>  1 16-01-051  14-01-051  16           14           01           051        
#>  2 16-01-001  14-01-001  16           14           01           001        
#>  3 16-01-002  14-01-002  16           14           01           002        
#>  4 16-01-049  14-01-049  16           14           01           049        
#>  5 16-01-003  14-01-003  16           14           01           003        
#>  6 16-01-006  14-01-006  16           14           01           006        
#>  7 16-01-037  14-01-037  16           14           01           037        
#>  8 16-01-008  14-01-008  16           14           01           008        
#>  9 16-01-004  14-01-004  16           14           01           004        
#> 10 16-01-009  14-01-009  16           14           01           009        
#> # ℹ 8,121 more rows
#> # ℹ 4 more variables: cd_INE_mun <dbl>, mun <glue>, ccaa <chr>, prov <chr>
…
